1792,creative,aspire,0.9613125324249268
1792,creative,invigorate,0.9598628282546997
1792,creative,antiquated,0.9548970460891724
1792,creative,destiny,0.9527525901794434
1792,creative,depravity,0.9515835642814636
1792,creative,servile,0.9484823942184448
1792,creative,revere,0.9483630061149597
1792,creative,sublime,0.9458893537521362
1792,creative,propensity,0.9458385109901428
1792,creative,idolatry,0.9452766180038452
1804,creative,lavage,0.8864564895629883
1804,creative,inconceivable,0.8824464082717896
1804,creative,undermine,0.8776997923851013
1804,creative,conception,0.8769347667694092
1804,creative,retirement,0.8729263544082642
1804,creative,indolent,0.8680429458618164
1804,creative,germ,0.8674259781837463
1804,creative,predominate,0.8651726245880127
1804,creative,antiquity,0.8637939095497131
1804,creative,enfeeble,0.8626320958137512
1837,creative,conceivable,0.7840576171875
1837,creative,irresistibly,0.7602908611297607
1837,creative,self-preservation,0.7537791132926941
1837,creative,flimsy,0.7535235285758972
1837,creative,uncontrolled,0.7494466304779053
1837,creative,philosophically,0.7418597936630249
1837,creative,definition,0.7385584115982056
1837,creative,unlettered,0.7383624315261841
1837,creative,solecism,0.7277506589889526
1837,creative,dispensable,0.7209538817405701
1838,creative,dazzle,0.7697546482086182
1838,creative,primal,0.7661741971969604
1838,creative,commingle,0.7626881003379822
1838,creative,precincts,0.7608785033226013
1838,creative,sunless,0.7540755271911621
1838,creative,mirthful,0.7500193119049072
1838,creative,topmost,0.7453466653823853
1838,creative,imaginings,0.7450109720230103
1838,creative,imagination,0.7445098161697388
1838,creative,listless,0.7340860366821289
1839,creative,sacrilegious,0.6520044207572937
1839,creative,utterance,0.6499457359313965
1839,creative,incongruous,0.6436249613761902
1839,creative,proverbially,0.6408224701881409
1839,creative,forgiving,0.6390718221664429
1839,creative,materialism,0.6388247013092041
1839,creative,traceable,0.6373648643493652
1839,creative,universality,0.6357868909835815
1839,creative,chasten,0.6344771385192871
1839,creative,unspeakable,0.6332522034645081
1841,creative,pantheism,0.7603612542152405
1841,creative,generic,0.7441354990005493
1841,creative,separable,0.738930344581604
1841,creative,benignity,0.7329928278923035
1841,creative,unadorned,0.7287167906761169
1841,creative,reproduce,0.7246663570404053
1841,creative,growing,0.723493218421936
1841,creative,godlike,0.7199348211288452
1841,creative,meritoriously,0.7180308103561401
1841,creative,evanescent,0.7095856070518494
1842,creative,inherently,0.7956796288490295
1842,creative,alchemy,0.7780174016952515
1842,creative,sacerdotal,0.7715412378311157
1842,creative,idealism,0.7585563659667969
1842,creative,brutalize,0.7575373649597168
1842,creative,skepticism,0.75677490234375
1842,creative,individuality,0.7462329864501953
1842,creative,materialist,0.7418687343597412
1842,creative,perdition,0.7396029829978943
1842,creative,terrestrial,0.7374094128608704
1843,creative,just,0.7649985551834106
1843,creative,unenlightened,0.7546137571334839
1843,creative,intuition,0.7380532026290894
1843,creative,prescience,0.7342703342437744
1843,creative,ennoble,0.7325260639190674
1843,creative,exaltation,0.7171028852462769
1843,creative,incoherence,0.7160975337028503
1843,creative,recondite,0.7140540480613708
1843,creative,conservation,0.7117137908935547
1843,creative,deteriorate,0.7108997106552124
1844,creative,great-st,0.7180733680725098
1844,creative,malformation,0.7035751342773438
1844,creative,explode,0.6758450269699097
1844,creative,procreative,0.6312211751937866
1844,creative,elixir,0.6188076734542847
1844,creative,discovery,0.6178531050682068
1844,creative,bearable,0.6132093071937561
1844,creative,gene,0.6119089722633362
1844,creative,cordial,0.6113096475601196
1844,creative,rally,0.6023600101470947
1845,creative,god-like,0.6355949640274048
1845,creative,intuitive,0.6298495531082153
1845,creative,unmatched,0.6268885135650635
1845,creative,misanthropic,0.6191743612289429
1845,creative,facile,0.619063138961792
1845,creative,primal,0.6170670986175537
1845,creative,greatness,0.6137649416923523
1845,creative,impulsive,0.6126658916473389
1845,creative,juggernaut,0.6096076965332031
1845,creative,scoff,0.6082049608230591
1846,creative,poesy,0.786200761795044
1846,creative,sublimity,0.7732839584350586
1846,creative,individuality,0.7619756460189819
1846,creative,idealize,0.758603036403656
1846,creative,inspiration,0.756320595741272
1846,creative,vividness,0.7487907409667969
1846,creative,imagery,0.7437118887901306
1846,creative,enfold,0.7428547143936157
1846,creative,meretricious,0.7347581386566162
1846,creative,symbolical,0.7339205741882324
1847,creative,aptitude,0.7265695333480835
1847,creative,ripeness,0.6960157752037048
1847,creative,exuberant,0.6927367448806763
1847,creative,enlightenment,0.6881589889526367
1847,creative,frailty,0.6775010824203491
1847,creative,reverent,0.6770078539848328
1847,creative,irrationality,0.6726061701774597
1847,creative,unchanging,0.671443521976471
1847,creative,fantasy,0.6690692901611328
1847,creative,undeveloped,0.6681257486343384
1848,creative,self-governed,0.7159824371337891
1848,creative,meteoric,0.7100484371185303
1848,creative,priestly,0.7000916600227356
1848,creative,bootless,0.6878135204315186
1848,creative,ofttimes,0.6838662624359131
1848,creative,omnipotent,0.6790338158607483
1848,creative,grammatical,0.6770132184028625
1848,creative,abstruse,0.676148533821106
1848,creative,alienable,0.6731014847755432
1848,creative,childish,0.6722666621208191
1849,creative,intuition,0.6970971822738647
1849,creative,intellect,0.6743124723434448
1849,creative,predominance,0.6737626791000366
1849,creative,generalization,0.6710273027420044
1849,creative,empiricism,0.659796953201294
1849,creative,perspicuity,0.6540834307670593
1849,creative,adaptability,0.6483061909675598
1849,creative,gravitation,0.6452699303627014
1849,creative,exemplify,0.6434749364852905
1849,creative,lawgiver,0.6434535980224609
1850,creative,attractiveness,0.6760261058807373
1850,creative,mystification,0.6756023168563843
1850,creative,appropriateness,0.6611728668212891
1850,creative,allegorical,0.6568046808242798
1850,creative,impressible,0.6515175700187683
1850,creative,nonage,0.6453431248664856
1850,creative,similitude,0.6442461013793945
1850,creative,metaphysical,0.6430758237838745
1850,creative,generalization,0.6385834217071533
1850,creative,chaotic,0.6324394941329956
1851,creative,symbolize,0.7384597659111023
1851,creative,exuberance,0.7268531322479248
1851,creative,fatalism,0.7199375629425049
1851,creative,humanize,0.7198899984359741
1851,creative,indestructible,0.7196353673934937
1851,creative,loftily,0.7195916175842285
1851,creative,chasten,0.7194399237632751
1851,creative,overwrought,0.7189338207244873
1851,creative,self-govern,0.7181050777435303
1851,creative,littleness,0.716432511806488
1852,creative,idiomatic,0.7695856094360352
1852,creative,hieroglyph,0.7688115835189819
1852,creative,contemplative,0.7516460418701172
1852,creative,inorganic,0.7360407114028931
1852,creative,symbolic,0.7345384359359741
1852,creative,sensuous,0.7341166734695435
1852,creative,objective,0.7340220808982849
1852,creative,aesthetic,0.7327873706817627
1852,creative,unmatched,0.7282034754753113
1852,creative,omniscient,0.7266370058059692
1853,creative,typify,0.7984158992767334
1853,creative,effluent,0.7789543867111206
1853,creative,evanescent,0.761654794216156
1853,creative,imagery,0.7587350606918335
1853,creative,unmatched,0.757137656211853
1853,creative,handmaid,0.7553838491439819
1853,creative,emotional,0.7515619397163391
1853,creative,untaught,0.7462963461875916
1853,creative,patchwork,0.7444870471954346
1853,creative,archaeologist,0.7413957715034485
1854,creative,procreative,0.8233252763748169
1854,creative,incompetency,0.7792233228683472
1854,creative,terrifying,0.7327370643615723
1854,creative,sexual,0.6943415999412537
1854,creative,monomania,0.6797831058502197
1854,creative,sluggishness,0.6774237155914307
1854,creative,dream,0.6730586290359497
1854,creative,miscarriage,0.6548004150390625
1854,creative,stomach,0.6508222818374634
1854,creative,inability,0.6423759460449219
1855,creative,sluggishness,0.8278751969337463
1855,creative,frustration,0.701424241065979
1855,creative,miscarriage,0.7009978294372559
1855,creative,monomania,0.6975637674331665
1855,creative,emaciation,0.6608059406280518
1855,creative,irritability,0.6432193517684937
1855,creative,indigestion,0.6415742039680481
1855,creative,incompetency,0.6410150527954102
1855,creative,procreative,0.6406316757202148
1855,creative,terrifying,0.6250171661376953
1856,creative,sluggishness,0.8717972636222839
1856,creative,toxic,0.7683860063552856
1856,creative,physics,0.7150907516479492
1856,creative,prostration,0.6926141977310181
1856,creative,miscarriage,0.6474352478981018
1856,creative,dirtiness,0.5973920226097107
1856,creative,irritability,0.5929089784622192
1856,creative,muscular,0.5917313098907471
1856,creative,nervousness,0.5792958736419678
1856,creative,indigestion,0.5769727826118469
1857,creative,geniality,0.8102468252182007
1857,creative,intuitive,0.7994163036346436
1857,creative,dynamics,0.7974308133125305
1857,creative,atheism,0.792893648147583
1857,creative,implant,0.7881782054901123
1857,creative,imagination,0.7843869924545288
1857,creative,rhythm,0.7838649749755859
1857,creative,imaginative,0.7821587920188904
1857,creative,humanize,0.7768287062644958
1857,creative,pliancy,0.7767277956008911
1858,creative,multiform,0.7733538150787354
1858,creative,preeminent,0.7509610652923584
1858,creative,liberalize,0.7282570600509644
1858,creative,ravishing,0.7272878885269165
1858,creative,scientifically,0.7243602275848389
1858,creative,intellect,0.7235317230224609
1858,creative,stoical,0.7222790122032166
1858,creative,terrestrial,0.7206588387489319
1858,creative,vivify,0.7201213836669922
1858,creative,paganism,0.7177611589431763
1859,creative,sweetened,0.7697089910507202
1859,creative,serenity,0.7546042799949646
1859,creative,untread,0.75379478931427
1859,creative,yearning,0.7509826421737671
1859,creative,unfading,0.7365753054618835
1859,creative,tuneful,0.7331824898719788
1859,creative,wolds,0.7321169376373291
1859,creative,spirituality,0.7316612601280212
1859,creative,indelibly,0.7247152328491211
1859,creative,demigod,0.7234557867050171
1860,creative,fecundity,0.7574927806854248
1860,creative,unexplore,0.7516969442367554
1860,creative,substructure,0.7309978008270264
1860,creative,undeveloped,0.7251547574996948
1860,creative,immeasurable,0.7228699922561646
1860,creative,aggregation,0.7103193402290344
1860,creative,adequacy,0.7074992656707764
1860,creative,wildness,0.6987226009368896
1860,creative,geologic,0.6983089447021484
1860,creative,emanation,0.69326251745224
1861,creative,imagery,0.7926726341247559
1861,creative,erotic,0.7873765230178833
1861,creative,untiringly,0.7645993232727051
1861,creative,earful,0.7459561824798584
1861,creative,vivify,0.7266098260879517
1861,creative,gentleness,0.7255635261535645
1861,creative,lyrical,0.7246506214141846
1861,creative,fascinate,0.7122201919555664
1861,creative,sanctify,0.71177077293396
1861,creative,intercom,0.7108054757118225
1862,creative,ttys,0.8119871616363525
1862,creative,retentive,0.7609164714813232
1862,creative,inventive,0.7141498327255249
1862,creative,notability,0.6998711824417114
1862,creative,deaden,0.6792783737182617
1862,creative,remedial,0.6688961386680603
1862,creative,portability,0.6652888059616089
1862,creative,tru,0.6639612317085266
1862,creative,rationale,0.6615238785743713
1862,creative,hand-book,0.6563224196434021
1863,creative,unfetter,0.7045035362243652
1863,creative,procreative,0.704145073890686
1863,creative,invertebrate,0.7000861763954163
1863,creative,feudalism,0.6979897618293762
1863,creative,deep-rooted,0.6894493103027344
1863,creative,unwitting,0.6792848706245422
1863,creative,god-fearing,0.6756783723831177
1863,creative,dissimilarity,0.6741735935211182
1863,creative,organism,0.6703673601150513
1863,creative,divergent,0.6692566275596619
1864,creative,dreaded-loss,0.7249541282653809
1864,creative,emotional,0.7098963260650635
1864,creative,procreative,0.7053697109222412
1864,creative,indirection,0.700075626373291
1864,creative,mental,0.6991336345672607
1864,creative,directive,0.6848649382591248
1864,creative,restful,0.6785452365875244
1864,creative,irritability,0.6782996654510498
1864,creative,fearful,0.677521288394928
1864,creative,noddy,0.6752869486808777
1865,creative,unbelief,0.7735474109649658
1865,creative,innovator,0.7668634653091431
1865,creative,coeval,0.7623229026794434
1865,creative,self-reliance,0.7594841718673706
1865,creative,multiform,0.7531818151473999
1865,creative,greatness,0.7516305446624756
1865,creative,handmaid,0.7460391521453857
1865,creative,fellow-laborers,0.7408074140548706
1865,creative,transcendent,0.7383229732513428
1865,creative,bounden,0.7339980006217957
1866,creative,instrumentation,0.7460397481918335
1866,creative,naturalness,0.7376683950424194
1866,creative,adapter,0.7049518823623657
1866,creative,decadence,0.6964104771614075
1866,creative,vocally,0.6947684288024902
1866,creative,delineate,0.6888427734375
1866,creative,congruous,0.6857694387435913
1866,creative,attractiveness,0.6818157434463501
1866,creative,painstaking,0.6807698011398315
1866,creative,foible,0.6803303956985474
1867,creative,sublimity,0.7277719974517822
1867,creative,consciously,0.7133674025535583
1867,creative,transcendental,0.712347686290741
1867,creative,nebulous,0.7069156765937805
1867,creative,nobleness,0.7068301439285278
1867,creative,autocracy,0.7020983695983887
1867,creative,innermost,0.7014780044555664
1867,creative,symbolic,0.6986719369888306
1867,creative,humanize,0.6985481381416321
1867,creative,actuality,0.6955549716949463
1868,creative,omnipotence,0.6408211588859558
1868,creative,wittily,0.6315821409225464
1868,creative,conjugation,0.6252425312995911
1868,creative,roached,0.6121724843978882
1868,creative,guesswork,0.5972566604614258
1868,creative,ampere,0.5938208103179932
1868,creative,learnedly,0.5936845541000366
1868,creative,alchemy,0.5929770469665527
1868,creative,congenital,0.5903371572494507
1868,creative,fellow-reformers,0.587071418762207
1869,creative,disease-ridden,0.6805160641670227
1869,creative,crudity,0.6497218608856201
1869,creative,offshoot,0.644528329372406
1869,creative,coeval,0.6387552618980408
1869,creative,alchemy,0.6366924047470093
1869,creative,physical,0.6360424757003784
1869,creative,intellect,0.6301109194755554
1869,creative,molecular,0.6272947788238525
1869,creative,energize,0.6266738176345825
1869,creative,physicist,0.6188817620277405
1870,creative,ideal,0.7374892830848694
1870,creative,individualize,0.7333309054374695
1870,creative,imitative,0.7289513349533081
1870,creative,literalness,0.726737380027771
1870,creative,inductive,0.7236508727073669
1870,creative,vividness,0.722570538520813
1870,creative,mysticism,0.710107684135437
1870,creative,aesthetic,0.7043748497962952
1870,creative,self-help,0.7040137052536011
1870,creative,historically,0.6998929381370544
1871,creative,archetype,0.7982949018478394
1871,creative,atheistic,0.7977497577667236
1871,creative,subjective,0.7973476648330688
1871,creative,universe,0.7889268398284912
1871,creative,intellect,0.7741352319717407
1871,creative,imponderable,0.7714351415634155
1871,creative,genius,0.769729495048523
1871,creative,utilitarian,0.7689807415008545
1871,creative,symbolism,0.7634936571121216
1871,creative,nebulous,0.7622794508934021
1872,creative,diviner,0.8038911819458008
1872,creative,spirituality,0.7924754619598389
1872,creative,unknowable,0.7702196836471558
1872,creative,fleshly,0.7698004245758057
1872,creative,pantheistic,0.7657541036605835
1872,creative,actuality,0.763473391532898
1872,creative,instinctive,0.7616732120513916
1872,creative,ideal,0.7595388293266296
1872,creative,afflatus,0.7579796314239502
1872,creative,idealize,0.75632643699646
1873,creative,subtlety,0.751038670539856
1873,creative,intellect,0.7483557462692261
1873,creative,idealization,0.7406243085861206
1873,creative,preternatural,0.7228585481643677
1873,creative,vivify,0.7225406765937805
1873,creative,imagery,0.7118152379989624
1873,creative,mimetic,0.7030721306800842
1873,creative,subtle,0.7015805244445801
1873,creative,modulation,0.7005792260169983
1873,creative,prescience,0.6994521617889404
1874,creative,universe,0.8141730427742004
1874,creative,creation,0.7985774278640747
1874,creative,conception,0.7620110511779785
1874,creative,evolution,0.7617629766464233
1874,creative,unknowable,0.7570671439170837
1874,creative,anthropomorphism,0.7516422271728516
1874,creative,supernatural,0.7508409023284912
1874,creative,nebular,0.7502253651618958
1874,creative,evolve,0.7494461536407471
1874,creative,microcosm,0.7454593181610107
1875,creative,naturalism,0.7692062854766846
1875,creative,vivify,0.7675371170043945
1875,creative,astrological,0.7558203935623169
1875,creative,correlation,0.7520794868469238
1875,creative,inductive,0.7444056868553162
1875,creative,psychologist,0.7438663244247437
1875,creative,pantheistic,0.7434379458427429
1875,creative,apocalypse,0.7367955446243286
1875,creative,infinite,0.7338701486587524
1875,creative,causality,0.7307875752449036
1876,creative,pantheism,0.785518229007721
1876,creative,protoplasm,0.7759002447128296
1876,creative,unknowable,0.7715269327163696
1876,creative,positivism,0.7706403732299805
1876,creative,causation,0.7647281885147095
1876,creative,plasticity,0.7573913335800171
1876,creative,idealism,0.7563016414642334
1876,creative,illustrator,0.7451657056808472
1876,creative,receptive,0.7404934763908386
1876,creative,correlation,0.7386469841003418
1877,creative,cosmogony,0.8162092566490173
1877,creative,materialist,0.7972114086151123
1877,creative,materialism,0.7832640409469604
1877,creative,symbolize,0.7730115056037903
1877,creative,indissoluble,0.7722699642181396
1877,creative,universality,0.7722429037094116
1877,creative,asceticism,0.7714802026748657
1877,creative,omnipotence,0.7676149010658264
1877,creative,sensual,0.7668112516403198
1877,creative,vivify,0.7666159868240356
1878,creative,untainted,0.807533860206604
1878,creative,enthrall,0.8052548170089722
1878,creative,foible,0.7956936359405518
1878,creative,self-assertion,0.7905477285385132
1878,creative,prudery,0.7709895372390747
1878,creative,synthetic,0.7664577960968018
1878,creative,subtlety,0.7663602232933044
1878,creative,quick-witted,0.7603654861450195
1878,creative,emptiness,0.7550292015075684
1878,creative,portrayal,0.7520195245742798
1879,creative,anthropology,0.7488013505935669
1879,creative,commentator,0.7314088344573975
1879,creative,supernatural,0.7308093309402466
1879,creative,glossary,0.7244428396224976
1879,creative,fleshly,0.7186944484710693
1879,creative,omniscience,0.713712215423584
1879,creative,mythology,0.7057871222496033
1879,creative,hieroglyphic,0.7021650075912476
1879,creative,materialize,0.7009190320968628
1879,creative,monotheism,0.7005545496940613
1880,creative,dialectic,0.7526955604553223
1880,creative,subtlety,0.748734712600708
1880,creative,histrionic,0.7456842064857483
1880,creative,superficially,0.7403079271316528
1880,creative,iconoclastic,0.731224536895752
1880,creative,idyllic,0.7271755337715149
1880,creative,technique,0.725810706615448
1880,creative,flexibility,0.7214925289154053
1880,creative,idealistic,0.7200298309326172
1880,creative,genius,0.7198036909103394
1881,creative,universality,0.7858243584632874
1881,creative,materialistic,0.766152560710907
1881,creative,idiosyncrasy,0.7611417770385742
1881,creative,perceptive,0.7437950372695923
1881,creative,meretricious,0.733508825302124
1881,creative,vagueness,0.7328827381134033
1881,creative,catholicity,0.7293990850448608
1881,creative,figment,0.7283069491386414
1881,creative,sociology,0.7244799137115479
1881,creative,beneficence,0.723164439201355
1882,creative,cohesion,0.7556226253509521
1882,creative,dominance,0.7436172366142273
1882,creative,epitomize,0.7333670854568481
1882,creative,materialism,0.7306730151176453
1882,creative,configuration,0.7295215129852295
1882,creative,complexity,0.7282940745353699
1882,creative,transcend,0.7280466556549072
1882,creative,corner-stones,0.7252164483070374
1882,creative,aggrandize,0.7237511873245239
1882,creative,gravitation,0.7202389240264893
1883,creative,imagery,0.730069637298584
1883,creative,overmaster,0.7228741645812988
1883,creative,mannerism,0.7114356756210327
1883,creative,materialist,0.7096954584121704
1883,creative,individualism,0.7074030041694641
1883,creative,transmutation,0.705176830291748
1883,creative,propitiation,0.6996784210205078
1883,creative,recondite,0.6994073987007141
1883,creative,threefold,0.698757529258728
1883,creative,directness,0.6982256174087524
1884,creative,figurative,0.7860386371612549
1884,creative,pessimism,0.7802680134773254
1884,creative,materialistic,0.7721061706542969
1884,creative,analogy,0.7695226073265076
1884,creative,imagery,0.7688336968421936
1884,creative,materialism,0.7614147067070007
1884,creative,self-sacrificing,0.759502649307251
1884,creative,vividness,0.7581276893615723
1884,creative,sublimity,0.7564185857772827
1884,creative,vertebrate,0.7551287412643433
1885,creative,idealist,0.7939044237136841
1885,creative,genius,0.78486567735672
1885,creative,meekness,0.7728766202926636
1885,creative,suggestiveness,0.7700802087783813
1885,creative,sensuality,0.7690709233283997
1885,creative,transcend,0.7653833627700806
1885,creative,nurture,0.7634276747703552
1885,creative,imagery,0.7632045745849609
1885,creative,materialism,0.7594845294952393
1885,creative,mythology,0.7562935948371887
1886,creative,didactic,0.7613146901130676
1886,creative,mysticism,0.7419406771659851
1886,creative,excitation,0.740412175655365
1886,creative,individuality,0.7331734895706177
1886,creative,polemical,0.7322126030921936
1886,creative,transcendental,0.7209007740020752
1886,creative,subtlety,0.7184220552444458
1886,creative,materialistic,0.7079617977142334
1886,creative,analytic,0.7075978517532349
1886,creative,apocalypse,0.7066810131072998
1887,creative,diffusive,0.7056012153625488
1887,creative,sensuous,0.6859760284423828
1887,creative,minuet,0.6592323780059814
1887,creative,bathos,0.6582404375076294
1887,creative,multitudinous,0.6478451490402222
1887,creative,similitude,0.6463131308555603
1887,creative,delineation,0.63623046875
1887,creative,colloquial,0.6354585886001587
1887,creative,evanescent,0.634984016418457
1887,creative,illimitable,0.6330206394195557
1888,creative,materialistic,0.7847486138343811
1888,creative,materialist,0.7772045731544495
1888,creative,imagery,0.770050048828125
1888,creative,evolutionist,0.7684428691864014
1888,creative,mysticism,0.7675298452377319
1888,creative,conciseness,0.7658392190933228
1888,creative,idealist,0.7646688222885132
1888,creative,versification,0.7605462670326233
1888,creative,analytic,0.7572945356369019
1888,creative,occultism,0.752877950668335
1889,creative,mathematically,0.8000472187995911
1889,creative,acceptation,0.790347695350647
1889,creative,ennoble,0.7850293517112732
1889,creative,abnegation,0.7846835851669312
1889,creative,rationalistic,0.7838813662528992
1889,creative,self-restraint,0.7834900617599487
1889,creative,germinal,0.7833256721496582
1889,creative,externals,0.7832546830177307
1889,creative,psychic,0.7777616381645203
1889,creative,materialism,0.7777266502380371
1890,creative,individualism,0.7931142449378967
1890,creative,transcendent,0.7736483812332153
1890,creative,parallelism,0.7668272256851196
1890,creative,omnipotence,0.7625926733016968
1890,creative,pedantry,0.7604696750640869
1890,creative,omniscience,0.7537857294082642
1890,creative,law-giver,0.7535451054573059
1890,creative,conformable,0.7477708458900452
1890,creative,god-given,0.7445777654647827
1890,creative,unfaltering,0.7441759705543518
1891,creative,inculcation,0.720832347869873
1891,creative,directness,0.7060254812240601
1891,creative,pervasive,0.6968669891357422
1891,creative,sensuality,0.6962587833404541
1891,creative,anglicize,0.6934210062026978
1891,creative,attainment,0.6911244988441467
1891,creative,adapting,0.6894696950912476
1891,creative,abstruse,0.6882373690605164
1891,creative,turgid,0.6869633197784424
1891,creative,pedantry,0.6855666637420654
1892,creative,materialism,0.791933000087738
1892,creative,self-consciousness,0.7895437479019165
1892,creative,pantheism,0.7828240394592285
1892,creative,idealism,0.777679979801178
1892,creative,individualize,0.7776044607162476
1892,creative,theistic,0.7752541303634644
1892,creative,materialistic,0.7719701528549194
1892,creative,puritanism,0.7711522579193115
1892,creative,bookish,0.7709307670593262
1892,creative,altruistic,0.7699263095855713
1893,creative,clairvoyance,0.7788515686988831
1893,creative,telepathy,0.7783452272415161
1893,creative,subjective,0.7617729902267456
1893,creative,microcosm,0.7553942203521729
1893,creative,evolutionary,0.7521693110466003
1893,creative,altruism,0.748798131942749
1893,creative,word-painter,0.7472401857376099
1893,creative,synthetic,0.7463840246200562
1893,creative,weirdness,0.7444615364074707
1893,creative,molecular,0.7417619228363037
1894,creative,evolution,0.7202205657958984
1894,creative,cosmic,0.7185341715812683
1894,creative,evolutionary,0.7142773866653442
1894,creative,generalize,0.7106538414955139
1894,creative,inorganic,0.7008601427078247
1894,creative,materialistic,0.6940993070602417
1894,creative,recondite,0.6926152110099792
1894,creative,evolve,0.6888510584831238
1894,creative,universe,0.6876431703567505
1894,creative,correlation,0.6809343099594116
1895,creative,idealism,0.7877475023269653
1895,creative,subjective,0.7768338322639465
1895,creative,idealistic,0.7624298334121704
1895,creative,materialist,0.7566943168640137
1895,creative,genius,0.753343939781189
1895,creative,idealist,0.7499020099639893
1895,creative,subtly,0.7470836639404297
1895,creative,dogmatism,0.7424766421318054
1895,creative,delineation,0.735139012336731
1895,creative,self-love,0.7318136692047119
1896,creative,utilitarianism,0.731378436088562
1896,creative,transitional,0.730121374130249
1896,creative,unreality,0.7288102507591248
1896,creative,infinitude,0.7187663316726685
1896,creative,folk-song,0.7144210338592529
1896,creative,emotionally,0.7130522727966309
1896,creative,egoism,0.7106080055236816
1896,creative,nineteenth-century,0.7099546194076538
1896,creative,introspective,0.7098531723022461
1896,creative,pantheistic,0.7082281112670898
1897,creative,microcosm,0.7885994911193848
1897,creative,naturalism,0.7849875092506409
1897,creative,idealist,0.7750580906867981
1897,creative,theism,0.7723697423934937
1897,creative,play-making,0.7708835601806641
1897,creative,romanticism,0.7670059204101562
1897,creative,differentiation,0.756980299949646
1897,creative,subjective,0.7556002140045166
1897,creative,perspicuity,0.7544639110565186
1897,creative,objectively,0.7541790008544922
1898,creative,genius,0.7856795787811279
1898,creative,infinite,0.7713051438331604
1898,creative,sensuous,0.7458449602127075
1898,creative,subjective,0.7443898320198059
1898,creative,elemental,0.7418932914733887
1898,creative,profundity,0.7397321462631226
1898,creative,universe,0.7393704652786255
1898,creative,interpretative,0.7323973774909973
1898,creative,evolve,0.7299875020980835
1898,creative,mysticism,0.7298320531845093
1899,creative,idealism,0.7745482921600342
1899,creative,crudeness,0.7713063359260559
1899,creative,self-consciousness,0.7706884145736694
1899,creative,infinite,0.7689460515975952
1899,creative,supernal,0.7678042054176331
1899,creative,idealist,0.7618488669395447
1899,creative,altruism,0.7464283108711243
1899,creative,naturalism,0.7448365092277527
1899,creative,profundity,0.7417804598808289
1899,creative,inspiration,0.7403321266174316
1900,creative,genius,0.8532427549362183
1900,creative,mimetic,0.8052892088890076
1900,creative,purposeful,0.7712405920028687
1900,creative,symbolism,0.7708050012588501
1900,creative,spontaneity,0.768773078918457
1900,creative,loftiness,0.7627928256988525
1900,creative,idealistic,0.7617100477218628
1900,creative,versification,0.7544384598731995
1900,creative,degas,0.7524867057800293
1900,creative,virility,0.750435471534729
1901,creative,genius,0.8718185424804688
1901,creative,immaturity,0.7834337949752808
1901,creative,intellectual,0.7827070951461792
1901,creative,intellect,0.7734299302101135
1901,creative,craftsmanship,0.7732733488082886
1901,creative,practicality,0.7730560898780823
1901,creative,inspiration,0.7661004066467285
1901,creative,materialistic,0.7630876302719116
1901,creative,utilitarianism,0.7596372961997986
1901,creative,individualize,0.7556946873664856
1902,creative,genius,0.7594796419143677
1902,creative,elemental,0.7237163782119751
1902,creative,lyrical,0.7139308452606201
1902,creative,idealistic,0.7130438089370728
1902,creative,dynamics,0.7074319124221802
1902,creative,recondite,0.7072148323059082
1902,creative,idealization,0.7048787474632263
1902,creative,unimaginable,0.7037826776504517
1902,creative,intellectual,0.7028876543045044
1902,creative,spirituality,0.699928879737854
1903,creative,directive,0.7266613841056824
1903,creative,humanism,0.719780445098877
1903,creative,subconscious,0.7129514217376709
1903,creative,unknowable,0.7090587615966797
1903,creative,potentiality,0.7051646709442139
1903,creative,transmute,0.7027342319488525
1903,creative,unafraid,0.6984670162200928
1903,creative,conciseness,0.6981341242790222
1903,creative,dynamics,0.6972556114196777
1903,creative,subtle,0.6950925588607788
1904,creative,genius,0.7695757150650024
1904,creative,temperamentally,0.7498614192008972
1904,creative,minutia,0.745018482208252
1904,creative,provincialism,0.7408453226089478
1904,creative,psychologically,0.7361743450164795
1904,creative,morbidity,0.7227230072021484
1904,creative,dilettante,0.7202064990997314
1904,creative,educative,0.717918872833252
1904,creative,fundamentally,0.7166971564292908
1904,creative,subliminal,0.715893030166626
1905,creative,genius,0.8020982146263123
1905,creative,intellectual,0.7458094358444214
1905,creative,didactic,0.7368324995040894
1905,creative,erudition,0.7309492826461792
1905,creative,catholicity,0.7305425405502319
1905,creative,inspiration,0.7282541394233704
1905,creative,interdependence,0.728224515914917
1905,creative,non-essentials,0.7260429859161377
1905,creative,idealist,0.7242946624755859
1905,creative,transcendent,0.7195079326629639
1906,creative,genius,0.7430801391601562
1906,creative,transitional,0.7356261610984802
1906,creative,temperamental,0.7191344499588013
1906,creative,idealistic,0.7157043814659119
1906,creative,amplitude,0.7062655687332153
1906,creative,diffusion,0.704909086227417
1906,creative,attainable,0.702004075050354
1906,creative,plenitude,0.6956959962844849
1906,creative,grandiose,0.6950916647911072
1906,creative,draftsmanship,0.6927413940429688
1907,creative,genius,0.7966582179069519
1907,creative,intellect,0.7287217378616333
1907,creative,subtlety,0.7246478796005249
1907,creative,bibliographical,0.7208441495895386
1907,creative,vividness,0.7202220559120178
1907,creative,didactic,0.719521164894104
1907,creative,imagination,0.7133462429046631
1907,creative,intellectual,0.7129972577095032
1907,creative,romanticism,0.7104209661483765
1907,creative,imaginative,0.7066171765327454
1908,creative,genius,0.8132036924362183
1908,creative,naturalness,0.7611572742462158
1908,creative,intellect,0.7609598636627197
1908,creative,intellectual,0.7462016344070435
1908,creative,infinite,0.7440539002418518
1908,creative,naturalistic,0.7424471378326416
1908,creative,renascence,0.7413520812988281
1908,creative,poetic,0.7403644323348999
1908,creative,lyrical,0.7381303310394287
1908,creative,subtle,0.7367411851882935
1909,creative,genius,0.8014973998069763
1909,creative,pedantry,0.7619391679763794
1909,creative,idealism,0.7515836954116821
1909,creative,virtuosity,0.7473970651626587
1909,creative,craftsmanship,0.7413623929023743
1909,creative,overemphasize,0.740809977054596
1909,creative,naturalism,0.7405712008476257
1909,creative,draftsmanship,0.7311340570449829
1909,creative,idealistic,0.7290619611740112
1909,creative,synthesis,0.7285854816436768
1910,creative,genius,0.7571076154708862
1910,creative,naturalism,0.7147442102432251
1910,creative,expressiveness,0.7036281824111938
1910,creative,objectivity,0.6963661909103394
1910,creative,idealize,0.6962777972221375
1910,creative,classicism,0.6919666528701782
1910,creative,reproductive,0.688626766204834
1910,creative,humanize,0.6844056844711304
1910,creative,individualize,0.6832128167152405
1910,creative,sonority,0.6760159134864807
1911,creative,genius,0.7654949426651001
1911,creative,imaginative,0.7186694145202637
1911,creative,potently,0.7107837200164795
1911,creative,intellect,0.7042751312255859
1911,creative,undreamed,0.703851580619812
1911,creative,infinite,0.7032250761985779
1911,creative,imagination,0.7027995586395264
1911,creative,idealism,0.6885532736778259
1911,creative,craftsmanship,0.6853107213973999
1911,creative,metamorphosis,0.680974006652832
1912,creative,genius,0.8139950037002563
1912,creative,rhetorician,0.7797352075576782
1912,creative,broad-mindedness,0.7589804530143738
1912,creative,womanliness,0.7421920895576477
1912,creative,purposeful,0.7315594553947449
1912,creative,intellectual,0.7279465794563293
1912,creative,mimetic,0.7257142066955566
1912,creative,idealism,0.7253144979476929
1912,creative,imagination,0.7243925333023071
1912,creative,transcend,0.7179058790206909
1913,creative,genius,0.8080867528915405
1913,creative,intellect,0.7546400427818298
1913,creative,intellectual,0.7467120885848999
1913,creative,synthesis,0.7352653741836548
1913,creative,imagination,0.733059287071228
1913,creative,idealism,0.7198534607887268
1913,creative,imaginative,0.7169407606124878
1913,creative,uninspired,0.7163188457489014
1913,creative,conceive,0.7158374786376953
1913,creative,infinite,0.7153959274291992
1914,creative,genius,0.7549774050712585
1914,creative,cubism,0.7209210991859436
1914,creative,idealize,0.7117269039154053
1914,creative,purposeful,0.7090883851051331
1914,creative,futurism,0.6993337273597717
1914,creative,perfectibility,0.6903444528579712
1914,creative,infinite,0.690227210521698
1914,creative,technician,0.6874386072158813
1914,creative,imagination,0.6873632669448853
1914,creative,effeminacy,0.6848976612091064
1915,creative,genius,0.7540684342384338
1915,creative,intellectual,0.7140215039253235
1915,creative,imagination,0.7121279239654541
1915,creative,intellect,0.709865152835846
1915,creative,insight,0.7070963382720947
1915,creative,infinite,0.7006388902664185
1915,creative,accomplishment,0.6878581047058105
1915,creative,self-expression,0.6824018955230713
1915,creative,superwoman,0.6801873445510864
1915,creative,universality,0.6798083782196045
1916,creative,genius,0.7757906913757324
1916,creative,technician,0.7442287802696228
1916,creative,perception,0.7229317426681519
1916,creative,objectify,0.7097764015197754
1916,creative,intellectual,0.7073518633842468
1916,creative,inventiveness,0.7029100656509399
1916,creative,imagination,0.6951822638511658
1916,creative,interrelation,0.6943227052688599
1916,creative,infinite,0.6893431544303894
1916,creative,versification,0.688477635383606
1917,creative,essentially,0.7481361627578735
1917,creative,intellectual,0.7341659665107727
1917,creative,genius,0.7089195251464844
1917,creative,many-sided,0.700618326663971
1917,creative,admirable,0.6974968314170837
1917,creative,imagination,0.6949255466461182
1917,creative,draftsmanship,0.692077100276947
1917,creative,artistry,0.6826345920562744
1917,creative,impressionism,0.6765461564064026
1917,creative,poetic,0.6759897470474243
1918,creative,genius,0.7814493179321289
1918,creative,evolution,0.716972827911377
1918,creative,conceive,0.7136423587799072
1918,creative,infinite,0.7075271606445312
1918,creative,naturalism,0.697971761226654
1918,creative,creator,0.6951848268508911
1918,creative,inspire,0.6879065036773682
1918,creative,essentially,0.6872422695159912
1918,creative,contemporaneous,0.6847715377807617
1918,creative,inherent,0.6847532987594604
1919,creative,imagination,0.7509080767631531
1919,creative,genius,0.7418113946914673
1919,creative,intellectual,0.7266315221786499
1919,creative,imaginative,0.710127055644989
1919,creative,intellect,0.7067999839782715
1919,creative,inspire,0.700776219367981
1919,creative,perception,0.695866584777832
1919,creative,achieve,0.695785641670227
1919,creative,attainment,0.6957815885543823
1919,creative,conceive,0.6946039199829102
1920,creative,genius,0.7734591960906982
1920,creative,intellectual,0.7596892714500427
1920,creative,subtle,0.7484042048454285
1920,creative,imaginative,0.745152473449707
1920,creative,commonplace,0.7448321580886841
1920,creative,imagination,0.7352581024169922
1920,creative,human,0.7302486896514893
1920,creative,rationalistic,0.7283667325973511
1920,creative,admirable,0.7237956523895264
1920,creative,insight,0.7235723733901978
1921,creative,genius,0.7740799188613892
1921,creative,creator,0.7557379603385925
1921,creative,infinite,0.7402853965759277
1921,creative,self-expression,0.7310218811035156
1921,creative,catholicity,0.7174792289733887
1921,creative,modernism,0.7165272235870361
1921,creative,imaginative,0.7121590375900269
1921,creative,evolution,0.7094042301177979
1921,creative,philosophy,0.7035478353500366
1921,creative,mystical,0.6980630159378052
1922,creative,genius,0.815123975276947
1922,creative,imaginative,0.7695372700691223
1922,creative,concept,0.7537822723388672
1922,creative,perception,0.7499983310699463
1922,creative,intellectual,0.748919665813446
1922,creative,imagination,0.7470883727073669
1922,creative,intellect,0.738014280796051
1922,creative,technique,0.7331918478012085
1922,creative,philosophy,0.7211785912513733
1922,creative,self-expression,0.7099862098693848
1923,creative,psychoanalysis,0.7848292589187622
1923,creative,abstruse,0.7705056071281433
1923,creative,occultism,0.7538137435913086
1923,creative,psycho-analysis,0.7410646677017212
1923,creative,transcendent,0.7331312894821167
1923,creative,cosmic,0.7326098680496216
1923,creative,materialistic,0.7298389673233032
1923,creative,subjective,0.7286370992660522
1923,creative,fallible,0.7237385511398315
1923,creative,ethical,0.7218412756919861
1924,creative,genius,0.7188018560409546
1924,creative,virility,0.6850534677505493
1924,creative,ethical,0.6812038421630859
1924,creative,character,0.6721317768096924
1924,creative,perception,0.6532245874404907
1924,creative,spiritual,0.6484060287475586
1924,creative,inventive,0.6427279710769653
1924,creative,metaphysical,0.642028272151947
1924,creative,creator,0.6375688314437866
1924,creative,imagination,0.6363652944564819
1925,creative,genius,0.7905219197273254
1925,creative,sociological,0.7699425220489502
1925,creative,realist,0.7593157291412354
1925,creative,individualistic,0.7564949989318848
1925,creative,overemphasize,0.7560495734214783
1925,creative,cosmic,0.744035005569458
1925,creative,self-expression,0.7353155016899109
1925,creative,aesthetic,0.7290278077125549
1925,creative,superficiality,0.7290072441101074
1925,creative,oneness,0.7199460864067078
